<svg width="60" height="25" viewBox="0 0 60 25" fill="none" xmlns="http://www.w3.org/2000/svg">
<rect x="18.1866" y="1.479" width="41.3134" height="23" rx="11.5" stroke="#9499A5"/>
<rect x="18.1866" y="1.479" width="23.1791" height="23" rx="11.5" fill="white" stroke="#9499A5"/>
<g opacity="0.9" filter="url(#filter0_b)">
<rect y="0.979004" width="42.3134" height="24" rx="12" fill="url(#paint0_linear)"/>
</g>
<rect x="18.6343" y="1.479" width="23.1791" height="23" rx="11.5" fill="white" stroke="#B856DC"/>
<defs>
<filter id="filter0_b" x="-27.1828" y="-26.2038" width="96.6791" height="78.3656" filterUnits="userSpaceOnUse" color-interpolation-filters="sRGB">
<feFlood flood-opacity="0" result="BackgroundImageFix"/>
<feGaussianBlur in="BackgroundImage" stdDeviation="13.5914"/>
<feComposite in2="SourceAlpha" operator="in" result="effect1_backgroundBlur"/>
<feBlend mode="normal" in="SourceGraphic" in2="effect1_backgroundBlur" result="shape"/>
</filter>
<linearGradient id="paint0_linear" x1="-3.01056e-07" y1="12.979" x2="29.424" y2="30.4475" gradientUnits="userSpaceOnUse">
<stop stop-color="#E458FC"/>
<stop offset="1" stop-color="#1D1279"/>
</linearGradient>
</defs>
</svg>
