<svg width="37" height="37" viewBox="0 0 37 37" fill="none" xmlns="http://www.w3.org/2000/svg">
<mask id="mask0" mask-type="alpha" maskUnits="userSpaceOnUse" x="0" y="0" width="37" height="37">
<rect x="0.731689" y="0.188354" width="36" height="36" fill="#C4C4C4"/>
</mask>
<g mask="url(#mask0)">
<path opacity="0.5" fill-rule="evenodd" clip-rule="evenodd" d="M9.78979 22.2484C9.93548 22.4817 10.2438 22.5534 10.4783 22.4085C10.7129 22.2636 10.785 21.957 10.6393 21.7237L7.10365 16.0623C8.60235 17.484 10.4193 18.9234 12.6597 20.2602C17.5449 23.1752 24.4136 25.5851 34.336 26.292C34.6114 26.3116 34.8507 26.1055 34.8705 25.8315C34.8902 25.5576 34.6829 25.3196 34.4075 25.3C24.6177 24.6025 17.9055 22.2305 13.1742 19.4074C10.0439 17.5396 7.76775 15.4667 6.03387 13.5289C6.31591 13.711 6.6091 13.8918 6.91213 14.0688C8.77759 15.1588 11.0485 16.1269 13.4122 16.3752C13.6868 16.4041 13.933 16.2061 13.962 15.933C13.991 15.6599 13.7919 15.4151 13.5173 15.3862C11.3455 15.158 9.2139 14.2602 7.41867 13.2113C5.62513 12.1634 4.1998 10.9837 3.44624 10.2301C3.26697 10.0508 2.98094 10.0338 2.78152 10.1907C2.58211 10.3476 2.53281 10.6283 2.66696 10.8431L9.78979 22.2484Z" fill="white"/>
</g>
</svg>
